MUXs/MUX_SUM/simulation/qsim/MUX_SUM.msim.vcd
$comment
	File created using the following command:
		vcd file MUX_SUM.msim.vcd -direction
$end
$date
	Sat Feb 06 14:04:25 2021
$end
$version
	ModelSim Version 10.1d
$end
$timescale
	1ps
$end
$scope module MUX_SUM_vlg_vec_tst $end
$var reg 1 ! enable $end
$var reg 8 " REG_ADD [7:0] $end
$var reg 8 # REG_SUB [7:0] $end
$var reg 1 $ S3 $end
$var wire 1 % OUT_REG [7] $end
$var wire 1 & OUT_REG [6] $end
$var wire 1 ' OUT_REG [5] $end
$var wire 1 ( OUT_REG [4] $end
$var wire 1 ) OUT_REG [3] $end
$var wire 1 * OUT_REG [2] $end
$var wire 1 + OUT_REG [1] $end
$var wire 1 , OUT_REG [0] $end
$var wire 1 - sampler $end
$scope module i1 $end
$var wire 1 . gnd $end
$var wire 1 / vcc $end
$var wire 1 0 unknown $end
$var tri1 1 1 devclrn $end
$var tri1 1 2 devpor $end
$var tri1 1 3 devoe $end
$var wire 1 4 ~QUARTUS_CREATED_GND~I_combout $end
$var wire 1 5 enable~input_o $end
$var wire 1 6 S3~input_o $end
$var wire 1 7 REG_SUB[0]~input_o $end
$var wire 1 8 REG_ADD[0]~input_o $end
$var wire 1 9 OUT_REG~0_combout $end
$var wire 1 : REG_SUB[1]~input_o $end
$var wire 1 ; REG_ADD[1]~input_o $end
$var wire 1 < OUT_REG~1_combout $end
$var wire 1 = REG_SUB[2]~input_o $end
$var wire 1 > REG_ADD[2]~input_o $end
$var wire 1 ? OUT_REG~2_combout $end
$var wire 1 @ REG_ADD[3]~input_o $end
$var wire 1 A REG_SUB[3]~input_o $end
$var wire 1 B OUT_REG~3_combout $end
$var wire 1 C REG_SUB[4]~input_o $end
$var wire 1 D REG_ADD[4]~input_o $end
$var wire 1 E OUT_REG~4_combout $end
$var wire 1 F REG_ADD[5]~input_o $end
$var wire 1 G REG_SUB[5]~input_o $end
$var wire 1 H OUT_REG~5_combout $end
$var wire 1 I REG_ADD[6]~input_o $end
$var wire 1 J REG_SUB[6]~input_o $end
$var wire 1 K OUT_REG~6_combout $end
$var wire 1 L REG_ADD[7]~input_o $end
$var wire 1 M REG_SUB[7]~input_o $end
$var wire 1 N OUT_REG~7_combout $end
$upscope $end
$upscope $end
$enddefinitions $end
#0
$dumpvars
0!
b10101010 "
b1010101 #
0$
0,
0+
0*
0)
0(
0'
0&
0%
x-
0.
1/
x0
11
12
13
04
05
06
17
08
09
0:
1;
0<
1=
0>
0?
1@
0A
0B
1C
0D
0E
1F
0G
0H
0I
1J
0K
1L
0M
0N
$end
#25000
1$
16
0-
#50000
0$
06
1-
#75000
1$
16
0-
#100000
0$
06
1-
#125000
1$
16
0-
#150000
0$
06
1-
#175000
1$
16
0-
#200000
0$
06
1-
#225000
1$
16
0-
#250000
1!
0$
15
06
1-
1<
1B
1H
1N
1+
1)
1'
1%
#275000
1$
16
0-
19
0<
1?
0B
1E
0H
1K
0N
1,
0+
1*
0)
1(
0'
1&
0%
#300000
0$
06
1-
09
1<
0?
1B
0E
1H
0K
1N
0,
1+
0*
1)
0(
1'
0&
1%
#325000
1$
16
0-
19
0<
1?
0B
1E
0H
1K
0N
1,
0+
1*
0)
1(
0'
1&
0%
#350000
0$
06
1-
09
1<
0?
1B
0E
1H
0K
1N
0,
1+
0*
1)
0(
1'
0&
1%
#375000
1$
16
0-
19
0<
1?
0B
1E
0H
1K
0N
1,
0+
1*
0)
1(
0'
1&
0%
#400000
0$
06
1-
09
1<
0?
1B
0E
1H
0K
1N
0,
1+
0*
1)
0(
1'
0&
1%
#425000
1$
16
0-
19
0<
1?
0B
1E
0H
1K
0N
1,
0+
1*
0)
1(
0'
1&
0%
#450000
0$
06
1-
09
1<
0?
1B
0E
1H
0K
1N
0,
1+
0*
1)
0(
1'
0&
1%
#475000
1$
16
0-
19
0<
1?
0B
1E
0H
1K
0N
1,
0+
1*
0)
1(
0'
1&
0%
#500000
0!
0$
05
06
1-
09
0?
0E
0K
0,
0*
0(
0&
#525000
1$
16
0-
#550000
0$
06
1-
#575000
1$
16
0-
#600000
0$
06
1-
#625000
1$
16
0-
#650000
0$
06
1-
#675000
1$
16
0-
#700000
0$
06
1-
#725000
1$
16
0-
#750000
1!
0$
15
06
1-
1<
1B
1H
1N
1+
1)
1'
1%
#775000
1$
16
0-
19
0<
1?
0B
1E
0H
1K
0N
1,
0+
1*
0)
1(
0'
1&
0%
#800000
0$
06
1-
09
1<
0?
1B
0E
1H
0K
1N
0,
1+
0*
1)
0(
1'
0&
1%
#825000
1$
16
0-
19
0<
1?
0B
1E
0H
1K
0N
1,
0+
1*
0)
1(
0'
1&
0%
#850000
0$
06
1-
09
1<
0?
1B
0E
1H
0K
1N
0,
1+
0*
1)
0(
1'
0&
1%
#875000
1$
16
0-
19
0<
1?
0B
1E
0H
1K
0N
1,
0+
1*
0)
1(
0'
1&
0%
#900000
0$
06
1-
09
1<
0?
1B
0E
1H
0K
1N
0,
1+
0*
1)
0(
1'
0&
1%
#925000
1$
16
0-
19
0<
1?
0B
1E
0H
1K
0N
1,
0+
1*
0)
1(
0'
1&
0%
#950000
0$
06
1-
09
1<
0?
1B
0E
1H
0K
1N
0,
1+
0*
1)
0(
1'
0&
1%
#975000
1$
16
0-
19
0<
1?
0B
1E
0H
1K
0N
1,
0+
1*
0)
1(
0'
1&
0%
