DEMUXs/DEMUX_SUM/simulation/qsim/DEMUX_SUM.msim.vcd
$comment
	File created using the following command:
		vcd file DEMUX_SUM.msim.vcd -direction
$end
$date
	Sat Feb 06 13:40:26 2021
$end
$version
	ModelSim Version 10.1d
$end
$timescale
	1ps
$end
$scope module DEMUX_SUM_vlg_vec_tst $end
$var reg 1 ! enable $end
$var reg 8 " IN_REG [7:0] $end
$var reg 1 # S3 $end
$var wire 1 $ REG_ADD [7] $end
$var wire 1 % REG_ADD [6] $end
$var wire 1 & REG_ADD [5] $end
$var wire 1 ' REG_ADD [4] $end
$var wire 1 ( REG_ADD [3] $end
$var wire 1 ) REG_ADD [2] $end
$var wire 1 * REG_ADD [1] $end
$var wire 1 + REG_ADD [0] $end
$var wire 1 , REG_SUB [7] $end
$var wire 1 - REG_SUB [6] $end
$var wire 1 . REG_SUB [5] $end
$var wire 1 / REG_SUB [4] $end
$var wire 1 0 REG_SUB [3] $end
$var wire 1 1 REG_SUB [2] $end
$var wire 1 2 REG_SUB [1] $end
$var wire 1 3 REG_SUB [0] $end
$var wire 1 4 sampler $end
$scope module i1 $end
$var wire 1 5 gnd $end
$var wire 1 6 vcc $end
$var wire 1 7 unknown $end
$var tri1 1 8 devclrn $end
$var tri1 1 9 devpor $end
$var tri1 1 : devoe $end
$var wire 1 ; REG_ADD[0]~output_o $end
$var wire 1 < REG_ADD[1]~output_o $end
$var wire 1 = REG_ADD[2]~output_o $end
$var wire 1 > REG_ADD[3]~output_o $end
$var wire 1 ? REG_ADD[4]~output_o $end
$var wire 1 @ REG_ADD[5]~output_o $end
$var wire 1 A REG_ADD[6]~output_o $end
$var wire 1 B REG_ADD[7]~output_o $end
$var wire 1 C REG_SUB[0]~output_o $end
$var wire 1 D REG_SUB[1]~output_o $end
$var wire 1 E REG_SUB[2]~output_o $end
$var wire 1 F REG_SUB[3]~output_o $end
$var wire 1 G REG_SUB[4]~output_o $end
$var wire 1 H REG_SUB[5]~output_o $end
$var wire 1 I REG_SUB[6]~output_o $end
$var wire 1 J REG_SUB[7]~output_o $end
$var wire 1 K S3~input_o $end
$var wire 1 L enable~input_o $end
$var wire 1 M IN_REG[0]~input_o $end
$var wire 1 N REG_ADD~0_combout $end
$var wire 1 O IN_REG[1]~input_o $end
$var wire 1 P REG_ADD~1_combout $end
$var wire 1 Q IN_REG[2]~input_o $end
$var wire 1 R REG_ADD~2_combout $end
$var wire 1 S IN_REG[3]~input_o $end
$var wire 1 T REG_ADD~3_combout $end
$var wire 1 U IN_REG[4]~input_o $end
$var wire 1 V REG_ADD~4_combout $end
$var wire 1 W IN_REG[5]~input_o $end
$var wire 1 X REG_ADD~5_combout $end
$var wire 1 Y IN_REG[6]~input_o $end
$var wire 1 Z REG_ADD~6_combout $end
$var wire 1 [ IN_REG[7]~input_o $end
$var wire 1 \ REG_ADD~7_combout $end
$var wire 1 ] REG_SUB~0_combout $end
$var wire 1 ^ REG_SUB~1_combout $end
$var wire 1 _ REG_SUB~2_combout $end
$var wire 1 ` REG_SUB~3_combout $end
$var wire 1 a REG_SUB~4_combout $end
$var wire 1 b REG_SUB~5_combout $end
$var wire 1 c REG_SUB~6_combout $end
$var wire 1 d REG_SUB~7_combout $end
$upscope $end
$upscope $end
$enddefinitions $end
#0
$dumpvars
0!
b11111111 "
0#
0+
0*
0)
0(
0'
0&
0%
0$
03
02
01
00
0/
0.
0-
0,
x4
05
16
x7
18
19
1:
0;
0<
0=
0>
0?
0@
0A
0B
0C
0D
0E
0F
0G
0H
0I
0J
0K
0L
1M
0N
1O
0P
1Q
0R
1S
0T
1U
0V
1W
0X
1Y
0Z
1[
0\
0]
0^
0_
0`
0a
0b
0c
0d
$end
#20000
1#
1K
04
#40000
0#
0K
14
#60000
1#
1K
04
#80000
0#
0K
14
#100000
1#
1K
04
#120000
0#
0K
14
#140000
1#
1K
04
#160000
0#
0K
14
#180000
1#
1K
04
#200000
1!
0#
1L
0K
14
1N
1P
1R
1T
1V
1X
1Z
1\
1;
1<
1=
1>
1?
1@
1A
1B
1+
1*
1)
1(
1'
1&
1%
1$
#220000
1#
1K
04
0N
0P
0R
0T
0V
0X
0Z
0\
1]
1^
1_
1`
1a
1b
1c
1d
0;
0<
0=
0>
0?
0@
0A
0B
1C
1D
1E
1F
1G
1H
1I
1J
0+
0*
0)
0(
0'
0&
0%
0$
13
12
11
10
1/
1.
1-
1,
#240000
0#
0K
14
1N
1P
1R
1T
1V
1X
1Z
1\
0]
0^
0_
0`
0a
0b
0c
0d
1;
1<
1=
1>
1?
1@
1A
1B
0C
0D
0E
0F
0G
0H
0I
0J
1+
1*
1)
1(
1'
1&
1%
1$
03
02
01
00
0/
0.
0-
0,
#260000
1#
1K
04
0N
0P
0R
0T
0V
0X
0Z
0\
1]
1^
1_
1`
1a
1b
1c
1d
0;
0<
0=
0>
0?
0@
0A
0B
1C
1D
1E
1F
1G
1H
1I
1J
0+
0*
0)
0(
0'
0&
0%
0$
13
12
11
10
1/
1.
1-
1,
#280000
0#
0K
14
1N
1P
1R
1T
1V
1X
1Z
1\
0]
0^
0_
0`
0a
0b
0c
0d
1;
1<
1=
1>
1?
1@
1A
1B
0C
0D
0E
0F
0G
0H
0I
0J
1+
1*
1)
1(
1'
1&
1%
1$
03
02
01
00
0/
0.
0-
0,
#300000
1#
1K
04
0N
0P
0R
0T
0V
0X
0Z
0\
1]
1^
1_
1`
1a
1b
1c
1d
0;
0<
0=
0>
0?
0@
0A
0B
1C
1D
1E
1F
1G
1H
1I
1J
0+
0*
0)
0(
0'
0&
0%
0$
13
12
11
10
1/
1.
1-
1,
#320000
0#
0K
14
1N
1P
1R
1T
1V
1X
1Z
1\
0]
0^
0_
0`
0a
0b
0c
0d
1;
1<
1=
1>
1?
1@
1A
1B
0C
0D
0E
0F
0G
0H
0I
0J
1+
1*
1)
1(
1'
1&
1%
1$
03
02
01
00
0/
0.
0-
0,
#340000
1#
1K
04
0N
0P
0R
0T
0V
0X
0Z
0\
1]
1^
1_
1`
1a
1b
1c
1d
0;
0<
0=
0>
0?
0@
0A
0B
1C
1D
1E
1F
1G
1H
1I
1J
0+
0*
0)
0(
0'
0&
0%
0$
13
12
11
10
1/
1.
1-
1,
#360000
0#
0K
14
1N
1P
1R
1T
1V
1X
1Z
1\
0]
0^
0_
0`
0a
0b
0c
0d
1;
1<
1=
1>
1?
1@
1A
1B
0C
0D
0E
0F
0G
0H
0I
0J
1+
1*
1)
1(
1'
1&
1%
1$
03
02
01
00
0/
0.
0-
0,
#380000
1#
1K
04
0N
0P
0R
0T
0V
0X
0Z
0\
1]
1^
1_
1`
1a
1b
1c
1d
0;
0<
0=
0>
0?
0@
0A
0B
1C
1D
1E
1F
1G
1H
1I
1J
0+
0*
0)
0(
0'
0&
0%
0$
13
12
11
10
1/
1.
1-
1,
#400000
0!
0#
0L
0K
14
0]
0^
0_
0`
0a
0b
0c
0d
0C
0D
0E
0F
0G
0H
0I
0J
03
02
01
00
0/
0.
0-
0,
#420000
1#
1K
04
#440000
0#
0K
14
#460000
1#
1K
04
#480000
0#
0K
14
#500000
1#
1K
04
#520000
0#
0K
14
#540000
1#
1K
04
#560000
0#
0K
14
#580000
1#
1K
04
#600000
1!
0#
1L
0K
14
1N
1P
1R
1T
1V
1X
1Z
1\
1;
1<
1=
1>
1?
1@
1A
1B
1+
1*
1)
1(
1'
1&
1%
1$
#620000
1#
1K
04
0N
0P
0R
0T
0V
0X
0Z
0\
1]
1^
1_
1`
1a
1b
1c
1d
0;
0<
0=
0>
0?
0@
0A
0B
1C
1D
1E
1F
1G
1H
1I
1J
0+
0*
0)
0(
0'
0&
0%
0$
13
12
11
10
1/
1.
1-
1,
#640000
0#
0K
14
1N
1P
1R
1T
1V
1X
1Z
1\
0]
0^
0_
0`
0a
0b
0c
0d
1;
1<
1=
1>
1?
1@
1A
1B
0C
0D
0E
0F
0G
0H
0I
0J
1+
1*
1)
1(
1'
1&
1%
1$
03
02
01
00
0/
0.
0-
0,
#660000
1#
1K
04
0N
0P
0R
0T
0V
0X
0Z
0\
1]
1^
1_
1`
1a
1b
1c
1d
0;
0<
0=
0>
0?
0@
0A
0B
1C
1D
1E
1F
1G
1H
1I
1J
0+
0*
0)
0(
0'
0&
0%
0$
13
12
11
10
1/
1.
1-
1,
#680000
0#
0K
14
1N
1P
1R
1T
1V
1X
1Z
1\
0]
0^
0_
0`
0a
0b
0c
0d
1;
1<
1=
1>
1?
1@
1A
1B
0C
0D
0E
0F
0G
0H
0I
0J
1+
1*
1)
1(
1'
1&
1%
1$
03
02
01
00
0/
0.
0-
0,
#700000
1#
1K
04
0N
0P
0R
0T
0V
0X
0Z
0\
1]
1^
1_
1`
1a
1b
1c
1d
0;
0<
0=
0>
0?
0@
0A
0B
1C
1D
1E
1F
1G
1H
1I
1J
0+
0*
0)
0(
0'
0&
0%
0$
13
12
11
10
1/
1.
1-
1,
#720000
0#
0K
14
1N
1P
1R
1T
1V
1X
1Z
1\
0]
0^
0_
0`
0a
0b
0c
0d
1;
1<
1=
1>
1?
1@
1A
1B
0C
0D
0E
0F
0G
0H
0I
0J
1+
1*
1)
1(
1'
1&
1%
1$
03
02
01
00
0/
0.
0-
0,
#740000
1#
1K
04
0N
0P
0R
0T
0V
0X
0Z
0\
1]
1^
1_
1`
1a
1b
1c
1d
0;
0<
0=
0>
0?
0@
0A
0B
1C
1D
1E
1F
1G
1H
1I
1J
0+
0*
0)
0(
0'
0&
0%
0$
13
12
11
10
1/
1.
1-
1,
#760000
0#
0K
14
1N
1P
1R
1T
1V
1X
1Z
1\
0]
0^
0_
0`
0a
0b
0c
0d
1;
1<
1=
1>
1?
1@
1A
1B
0C
0D
0E
0F
0G
0H
0I
0J
1+
1*
1)
1(
1'
1&
1%
1$
03
02
01
00
0/
0.
0-
0,
#780000
1#
1K
04
0N
0P
0R
0T
0V
0X
0Z
0\
1]
1^
1_
1`
1a
1b
1c
1d
0;
0<
0=
0>
0?
0@
0A
0B
1C
1D
1E
1F
1G
1H
1I
1J
0+
0*
0)
0(
0'
0&
0%
0$
13
12
11
10
1/
1.
1-
1,
#800000
0!
0#
0L
0K
14
0]
0^
0_
0`
0a
0b
0c
0d
0C
0D
0E
0F
0G
0H
0I
0J
03
02
01
00
0/
0.
0-
0,
#820000
1#
1K
04
#840000
0#
0K
14
#860000
1#
1K
04
#880000
0#
0K
14
#900000
1#
1K
04
#920000
0#
0K
14
#940000
1#
1K
04
#960000
0#
0K
14
#980000
1#
1K
04
